Unemployment Rate
…
# Contributing factor of 1992: Recession of the early 1990s. 1982 to 1990 was a period of robust growth in American economy with low inflation. In November of 1987, stock markets around the world crashed. Many investors took it as a sign of large US budget deficit. 

# Contributing factors of 2002: Recession of 2001, which lasted from March to November. This was first due to Y2K scare. Computer users and programmers were concerned that computers would stop functioning as time transitioned from 1999 to 2000. Computer sales experienced a significant decline, and many dot-com companies went bankrupt. The abrupt increase in unemployment rate in April 2002 is due to significant increase in total number of people looking for jobs. 

# Contributing factors of 2009: Great Recession (2007-2009) due to US housing bubbles and global financial crisis. Apprximately 800,000 jobs were lost and the unemployment rate temporarily peaked at 10 percent this year. 

#January
Jan_unem = unemrate %>%
  group_by(Year) %>%
  filter(Month== "January") %>%
  summarise(unem_ymrate = mean(Rate))
Jan_unem

## # A tibble: 27 x 2
##     Year unem_ymrate
##    <int>       <dbl>
##  1  1990        7.06
##  2  1991        8.10
##  3  1992        8.89
##  4  1993        8.45
##  5  1994        7.84
##  6  1995        7.01
##  7  1996        7.33
##  8  1997        7.01
##  9  1998        6.23
## 10  1999        6.00
## #  with 17 more rows
…
model1[which.min(model1$meanRate),]

## # A tibble: 1 x 2
##   Month   meanRate
##   <fct>      <dbl>
## 1 October     5.47

#In general,
(model2 = unemrate %>%
  group_by(Year, Month) %>%
  summarise(meanRate = mean(Rate)) %>%
  arrange(desc(meanRate)))

## # A tibble: 324 x 3
## # Groups:   Year [27]
##     Year Month    meanRate
##    <int> <fct>       <dbl>
##  1  2010 January     10.6 
##  2  2010 February    10.5 
##  3  2010 March       10.1 
##  4  2011 January      9.75
##  5  2011 February     9.40
##  6  2009 December     9.30
##  7  2009 February     9.21
##  8  2009 March        9.20
##  9  2009 June         9.11
## 10  2010 June         9.08
## #  with 314 more rows
…
